^C:\USERS\SEBASTIAN\DOCUMENTS\GRAFIKA-SPRAWOZDANIE-6\SPRAWOZDANIE7\SPRAWOZDANIE7\SPRAWOZDANIE7.CPP
C:\USERS\SEBASTIAN\DOCUMENTS\GRAFIKA-SPRAWOZDANIE-6\SPRAWOZDANIE7\SPRAWOZDANIE7\DEBUG\VC141.PDB
^C:\USERS\SEBASTIAN\DOCUMENTS\GRAFIKA-SPRAWOZDANIE-7\SPRAWOZDANIE7\SPRAWOZDANIE7\STDAFX.CPP
C:\USERS\SEBASTIAN\DOCUMENTS\GRAFIKA-SPRAWOZDANIE-7\SPRAWOZDANIE7\SPRAWOZDANIE7\DEBUG\SPRAWOZDANIE7.PCH
C:\USERS\SEBASTIAN\DOCUMENTS\GRAFIKA-SPRAWOZDANIE-7\SPRAWOZDANIE7\SPRAWOZDANIE7\DEBUG\VC141.PDB
C:\USERS\SEBASTIAN\DOCUMENTS\GRAFIKA-SPRAWOZDANIE-7\SPRAWOZDANIE7\SPRAWOZDANIE7\DEBUG\VC141.IDB
C:\USERS\SEBASTIAN\DOCUMENTS\GRAFIKA-SPRAWOZDANIE-7\SPRAWOZDANIE7\SPRAWOZDANIE7\DEBUG\STDAFX.OBJ
^C:\USERS\SEBASTIAN\DOCUMENTS\GRAFIKA-SPRAWOZDANIE-7\SPRAWOZDANIE7\SPRAWOZDANIE7\SPRAWOZDANIE7.CPP|C:\USERS\SEBASTIAN\DOCUMENTS\GRAFIKA-SPRAWOZDANIE-7\SPRAWOZDANIE7\SPRAWOZDANIE7\VECTORMATH.CPP
C:\USERS\SEBASTIAN\DOCUMENTS\GRAFIKA-SPRAWOZDANIE-7\SPRAWOZDANIE7\SPRAWOZDANIE7\DEBUG\VC141.PDB
C:\USERS\SEBASTIAN\DOCUMENTS\GRAFIKA-SPRAWOZDANIE-7\SPRAWOZDANIE7\SPRAWOZDANIE7\DEBUG\VC141.IDB
C:\USERS\SEBASTIAN\DOCUMENTS\GRAFIKA-SPRAWOZDANIE-7\SPRAWOZDANIE7\SPRAWOZDANIE7\DEBUG\SPRAWOZDANIE7.OBJ
C:\USERS\SEBASTIAN\DOCUMENTS\GRAFIKA-SPRAWOZDANIE-7\SPRAWOZDANIE7\SPRAWOZDANIE7\DEBUG\VECTORMATH.OBJ
^C:\USERS\SEBASTIAN\DOCUMENTS\GRAFIKA-SPRAWOZDANIE-7\SPRAWOZDANIE7\SPRAWOZDANIE7\SPRAWOZDANIE7.CPP
C:\USERS\SEBASTIAN\DOCUMENTS\GRAFIKA-SPRAWOZDANIE-7\SPRAWOZDANIE7\SPRAWOZDANIE7\DEBUG\VC141.PDB
^C:\USERS\SEBASTIAN\DOCUMENTS\GRAFIKA-SPRAWOZDANIE-7\SPRAWOZDANIE7\SPRAWOZDANIE7\VECTORMATH.CPP
C:\USERS\SEBASTIAN\DOCUMENTS\GRAFIKA-SPRAWOZDANIE-7\SPRAWOZDANIE7\SPRAWOZDANIE7\DEBUG\VC141.PDB
^C:\USERS\SEBASTIAN\DOCUMENTS\GRAFIKA-SPRAWOZDANIE-11\SPRAWOZDANIE7\SPRAWOZDANIE7\STDAFX.CPP
C:\USERS\SEBASTIAN\DOCUMENTS\GRAFIKA-SPRAWOZDANIE-11\SPRAWOZDANIE7\SPRAWOZDANIE7\DEBUG\SPRAWOZDANIE7.PCH
C:\USERS\SEBASTIAN\DOCUMENTS\GRAFIKA-SPRAWOZDANIE-11\SPRAWOZDANIE7\SPRAWOZDANIE7\DEBUG\VC141.PDB
C:\USERS\SEBASTIAN\DOCUMENTS\GRAFIKA-SPRAWOZDANIE-11\SPRAWOZDANIE7\SPRAWOZDANIE7\DEBUG\VC141.IDB
C:\USERS\SEBASTIAN\DOCUMENTS\GRAFIKA-SPRAWOZDANIE-11\SPRAWOZDANIE7\SPRAWOZDANIE7\DEBUG\STDAFX.OBJ
^C:\USERS\SEBASTIAN\DOCUMENTS\GRAFIKA-SPRAWOZDANIE-11\SPRAWOZDANIE7\SPRAWOZDANIE7\SPRAWOZDANIE7.CPP|C:\USERS\SEBASTIAN\DOCUMENTS\GRAFIKA-SPRAWOZDANIE-11\SPRAWOZDANIE7\SPRAWOZDANIE7\VECTORMATH.CPP
C:\USERS\SEBASTIAN\DOCUMENTS\GRAFIKA-SPRAWOZDANIE-11\SPRAWOZDANIE7\SPRAWOZDANIE7\DEBUG\VC141.PDB
C:\USERS\SEBASTIAN\DOCUMENTS\GRAFIKA-SPRAWOZDANIE-11\SPRAWOZDANIE7\SPRAWOZDANIE7\DEBUG\VC141.IDB
C:\USERS\SEBASTIAN\DOCUMENTS\GRAFIKA-SPRAWOZDANIE-11\SPRAWOZDANIE7\SPRAWOZDANIE7\DEBUG\SPRAWOZDANIE7.OBJ
C:\USERS\SEBASTIAN\DOCUMENTS\GRAFIKA-SPRAWOZDANIE-11\SPRAWOZDANIE7\SPRAWOZDANIE7\DEBUG\VECTORMATH.OBJ
^C:\USERS\SEBASTIAN\DOCUMENTS\GRAFIKA-SPRAWOZDANIE-11\SPRAWOZDANIE7\SPRAWOZDANIE7\SPRAWOZDANIE7.CPP
C:\USERS\SEBASTIAN\DOCUMENTS\GRAFIKA-SPRAWOZDANIE-11\SPRAWOZDANIE7\SPRAWOZDANIE7\DEBUG\VC141.PDB
C:\USERS\SEBASTIAN\DOCUMENTS\GRAFIKA-SPRAWOZDANIE-11\SPRAWOZDANIE7\SPRAWOZDANIE7\DEBUG\VC141.IDB
C:\USERS\SEBASTIAN\DOCUMENTS\GRAFIKA-SPRAWOZDANIE-11\SPRAWOZDANIE7\SPRAWOZDANIE7\DEBUG\SPRAWOZDANIE7.OBJ
^C:\USERS\SEBASTIAN\DOCUMENTS\GRAFIKA-SPRAWOZDANIE-11\SPRAWOZDANIE7\SPRAWOZDANIE7\VECTORMATH.CPP
C:\USERS\SEBASTIAN\DOCUMENTS\GRAFIKA-SPRAWOZDANIE-11\SPRAWOZDANIE7\SPRAWOZDANIE7\DEBUG\VC141.PDB
